Week 1 - Homework
…
Exercise 1 (Subsetting and Statistics)

For this exercise, we will use the msleep dataset from the ggplot2 package.

(a) Install and load the ggplot2 package. Do not include the installation command in your .Rmd file. (If you do it will install the package every time you knit your file.) Do include the command to load the package into your environment.

library(ggplot2)
library(dplyr)
library(MASS)

(b) Note that this dataset is technically a tibble, not a data frame. How many observations are in this dataset? How many variables? What are the observations in this dataset?

msleep

## # A tibble: 83 x 11
##    name  genus vore  order conservation sleep_total sleep_rem sleep_cycle
##    <chr> <chr> <chr> <chr> <chr>              <dbl>     <dbl>       <dbl>
##  1 Chee Acin carni Carn lc                  12.1      NA        NA    
##  2 Owl  Aotus omni  Prim <NA>                17         1.8      NA    
##  3 Moun Aplo herbi Rode nt                  14.4       2.4      NA    
##  4 Grea Blar omni  Sori lc                  14.9       2.3       0.133
##  5 Cow   Bos   herbi Arti domesticated         4         0.7       0.667
##  6 Thre Brad herbi Pilo <NA>                14.4       2.2       0.767
##  7 Nort Call carni Carn vu                   8.7       1.4       0.383
##  8 Vesp Calo <NA>  Rode <NA>                 7        NA        NA    
##  9 Dog   Canis carni Carn domesticated        10.1       2.9       0.333
## 10 Roe  Capr herbi Arti lc                   3        NA        NA    
## #  with 73 more rows, and 3 more variables: awake <dbl>, brainwt <dbl>,
## #   bodywt <dbl>
…
Potassium - in milligrams

Sodium - in milligrams

VitaminC - vitamin C, in milligrams

Chol - cholesterol, in milligrams

Portion - description of standard serving size used in analysis

library(readr)
nutrition_2018 <- read_csv("nutrition-2018.csv")
nutrition_2018

## # A tibble: 5,956 x 15
##    ID    Desc  Water Calories Protein   Fat Carbs Fiber Sugar Calcium
##    <chr> <chr> <dbl>    <dbl>   <dbl> <dbl> <dbl> <dbl> <dbl>   <dbl>
##  1 01001 BUTT 15.9       717    0.85  81.1  0.06     0  0.06      24
##  2 01002 BUTT 16.7       718    0.49  78.3  2.87     0  0.06      23
##  3 01003 BUTT  0.24      876    0.28  99.5  0        0  0          4
##  4 01004 CHEE 42.4       353   21.4   28.7  2.34     0  0.5      528
##  5 01005 CHEE 41.1       371   23.2   29.7  2.79     0  0.51     674
##  6 01006 CHEE 48.4       334   20.8   27.7  0.45     0  0.45     184
##  7 01007 CHEE 51.8       300   19.8   24.3  0.46     0  0.46     388
##  8 01009 CHEE 37.0       404   22.9   33.3  3.09     0  0.48     710
##  9 01011 CHEE 38.2       394   23.8   32.1  2.57     0  0.52     685
## 10 01012 CHEE 79.8        98   11.1    4.3  3.38     0  2.67      83
## #  with 5,946 more rows, and 5 more variables: Potassium <dbl>,
## #   Sodium <dbl>, VitaminC <dbl>, Chol <dbl>, Portion <chr>
…
